{
  "project_info": {
    "project_number": "183243430500",
    "project_id": "mealmate-57a11",
    "storage_bucket": "mealmate-57a11.appspot.com"
  },
  "client": [
    {
      "client_info": {
        "mobilesdk_app_id": "1:183243430500:android:cd99d82748630572599d71",
        "android_client_info": {
          "package_name": "com.example.mealmate"
        }
      },
      "oauth_client": [
        {
          "client_id": "183243430500-gg7r0q1sqp5nqg98u4o0ctoof93mk4nu.apps.googleusercontent.com",
          "client_type": 3
        }
      ],
      "api_key": [
        {
          "current_key": "AIzaSyAKZO9QDkM057Zp3ghjJVCPyeZYIbYdKQs"
        }
      ],
      "services": {
        "appinvite_service": {
          "other_platform_oauth_client": [
            {
              "client_id": "183243430500-gg7r0q1sqp5nqg98u4o0ctoof93mk4nu.apps.googleusercontent.com",
              "client_type": 3
            }
          ]
        }
      }
    }
  ],
  "configuration_version": "1"
}